…
sim_result_long <- sim_result %>%
  # Add condition ID
  rownames_to_column("con_id") %>%
  pivot_longer(
    bias.m1_est:rse_bias.m2_se,
    names_to = c(".value", "model"),
    names_pattern =
      "(bias|std_bias|rmse|rse_bias)\\.(m1|m2)_.*",
    names_ptypes =
      list(model = factor(levels = c("m1", "m2")))
  )
sim_result_long
```

    ># # A tibble: 24 x 14
    >#    con_id     N phi22 alpha2 REPLICATIONS SIM_TIME COMPLETED       SEED WARNINGS
    >#    <chr>  <dbl> <dbl>  <dbl>        <int>    <dbl> <chr>          <int>    <int>
    >#  1 1         50   0.1      0          500     42.4 Sat Apr 17 2… 1.10e9       86
    >#  2 1         50   0.1      0          500     42.4 Sat Apr 17 2… 1.10e9       86
    >#  3 2        100   0.1      0          500     46.9 Sat Apr 17 2… 1.57e9       19
    >#  4 2        100   0.1      0          500     46.9 Sat Apr 17 2… 1.57e9       19
    >#  5 3        200   0.1      0          500     45.1 Sat Apr 17 2… 1.70e9        2
    >#  6 3        200   0.1      0          500     45.1 Sat Apr 17 2… 1.70e9        2
    >#  7 4         50   0.5      0          500     48.3 Sat Apr 17 2… 1.25e9      106
    >#  8 4         50   0.5      0          500     48.3 Sat Apr 17 2… 1.25e9      106
    >#  9 5        100   0.5      0          500     41.9 Sat Apr 17 2… 5.05e8       29
    ># 10 5        100   0.5      0          500     41.9 Sat Apr 17 2… 5.05e8       29
    ># # … with 14 more rows, and 5 more variables: model <fct>, bias <dbl>,
    ># #   std_bias <dbl>, rmse <dbl>, rse_bias <dbl>
…
